Michael Luu, MPH - Advent of Code 2023, Day 3
…
row 2, column 28 is location of the symbol

row 2, column 29 is a valid spot (right of the symbol)

row 3, column 27 is a valid spot (below and left of the symbol)

row 3, column 28 is a valid spot (below the symbol)

row 3, column 29 is a valid spot (below and right of the symbol)

The main observations is that the symbol is always in the center of a 3 by 3 grid. We can use this to identify the locations of the symbols. We need to identify all of the adjacent cells that are valid, and then we can use this to identify the locations of the valid parts numbers.

data

# A tibble: 140 × 2
     row value                                                                  
   <int> <chr>                                                                  
 1     1 "                       153  988    502  842         588     441 468  …
 2     2 "            805            *      #             %               *    …
 3     3 "        914         #   617  201         271     671      52  898    …
 4     4 "          #      361          *           *            -4            …
 5     5 "490*                          350   *   664        806               …
 6     6 "    245               805           467       449   +              31…
 7     7 "                        *     150             *              8       …
 8     8 "435                 688 8              $      330                 474…
 9     9 "   * *    920        %                666  90     786$  221       *  …
10    10 " 718 120  @             $ 931                *           *    15   10…
# ℹ 130 more rows
…
