Michael Luu, MPH - Co-author Network Analysis with networkD3
…
data <- data |>
  select(author) |>
  mutate(i = row_number(), .before = author) |> 
  separate_wider_delim(
    author,
    delim = ' and ',
    names = paste0('author', 1:30),
    too_few = 'align_start'
  ) |> 
  pivot_longer(2:31) |> 
  filter(!is.na(value))

data

# A tibble: 761 × 3
       i name     value               
   <int> <chr>    <chr>               
 1     1 author1  Vinicius F Calsavara
 2     1 author2  Norah L Henry       
 3     1 author3  Ron D Hays          
 4     1 author4  Sungjin Kim         
 5     1 author5  Michael Luu         
 6     1 author6  Márcio A Diniz      
 7     1 author7  Gillian Gresham     
 8     1 author8  Reena S Cecchini    
 9     1 author9  Greg Yothers        
10     1 author10 Patricia A Ganz     
# ℹ 751 more rows
…
