Michael Luu, MPH - Advent of Code 2023, Day 8
…
Let’s also have a look at the nodes that can be traversed.

data

# A tibble: 1,548 × 3
   id    direction value
   <chr> <chr>     <chr>
 1 AAA   L         PBJ  
 2 AAA   R         RXK  
 3 BBA   L         TVV  
 4 BBA   R         VLF  
 5 BBJ   L         MCN  
 6 BBJ   R         RJD  
 7 BBN   L         FPQ  
 8 BBN   R         NFC  
 9 BBQ   L         MHL  
10 BBQ   R         VKQ  
# ℹ 1,538 more rows
…
