Michael Luu, MPH – Advent of Code 2023, Day 1
…
Part 1

The first part of the puzzle is fairly straight forward. We begin by using the str_remove_all function from the stringr package to remove all of the characters (and leave only the numeric) from the value column. Next we use str_extract to extract the first and last digit using regex, and paste0 to paste the numbers together to get the ‘calibration’ value. Finally we sum the cal column to get the solution.

res <- data |> 
  mutate(
    digits = str_remove_all(value, '[:alpha:]'),
    first = str_extract(digits, '^[:digit:]'),
    last = str_extract(digits, '[:digit:]$'),
    cal = as.numeric(paste0(first, last))
  ) 

res

# A tibble: 1,000 × 5
   value                                 digits first last    cal
   <chr>                                 <chr>  <chr> <chr> <dbl>
 1 9vxfg                                 9      9     9        99
 2 19qdlpmdrxone7sevennine               197    1     7        17
 3 1dzntwofour9nineffck                  19     1     9        19
 4 7bx8hpldgzqjheight                    78     7     8        78
 5 joneseven2sseven64chvczzn             264    2     4        24
 6 seven82683                            82683  8     3        83
 7 7onefour1eighttwo5three               715    7     5        75
 8 8lmsk871eight7                        88717  8     7        87
 9 ninefivefive2nine5ntvscdfdsmvqgcbxxxt 25     2     5        25
10 onepx6hbgdssfivexs                    6      6     6        66
# ℹ 990 more rows
…
}

res <- data |> 
  mutate(
    value2 = convert_char_to_numeric(value),
    digits = str_remove_all(value2, '[:alpha:]'),
    first = str_extract(digits, '^[:digit:]'),
    last = str_extract(digits, '[:digit:]$'),
    cal = as.numeric(paste0(first, last))
  ) 

res

# A tibble: 1,000 × 6
   value                                 value2         digits first last    cal
   <chr>                                 <chr>          <chr>  <chr> <chr> <dbl>
 1 9vxfg                                 9vxfg          9      9     9        99
 2 19qdlpmdrxone7sevennine               19qdlpmdrx1779 191779 1     9        19
 3 1dzntwofour9nineffck                  1dzn2499ffck   12499  1     9        19
 4 7bx8hpldgzqjheight                    7bx8hpldgzqjh8 788    7     8        78
 5 joneseven2sseven64chvczzn             j172s764chvcz… 172764 1     4        14
 6 seven82683                            782683         782683 7     3        73
 7 7onefour1eighttwo5three               71418253       71418… 7     3        73
 8 8lmsk871eight7                        8lmsk87187     887187 8     7        87
 9 ninefivefive2nine5ntvscdfdsmvqgcbxxxt 955295ntvscdf… 955295 9     5        95
10 onepx6hbgdssfivexs                    1px6hbgdss5xs  165    1     5        15
# ℹ 990 more rows
…
