Michael Luu, MPH - Natural Language Processing (NLP) and developing a machine learning classifier on Beyonce and Taylor Swift lyrics #TidyTuesday
…
Rows: 132 Columns: 4
── Column specification ────────────────────────────────────────────────────────
Delimiter: ","
chr (4): Artist, Album, Title, Lyrics

ℹ Use `spec()` to retrieve the full column specification for this data.
ℹ Specify the column types or set `show_col_types = FALSE` to quiet this message.

Data pre-processing and feature engineering

It appears the beyonce_lyrics and the taylor_swift_lyrics are the pertinent data sets for building our machine learning classifier. Let’s have a closer look at the two datasets.

beyonce_lyrics 

# A tibble: 22,616 × 6
   line                        song_id song_name artist_id artist_name song_line
   <chr>                         <dbl> <chr>         <dbl> <chr>           <dbl>
 1 If I ain't got nothing, I …   50396 1+1             498 Beyoncé             1
 2 If I ain't got something, …   50396 1+1             498 Beyoncé             2
 3 'Cause I got it with you      50396 1+1             498 Beyoncé             3
 4 I don't know much about al…   50396 1+1             498 Beyoncé             4
 5 And it's me and you           50396 1+1             498 Beyoncé             5
 6 That's all we'll have when…   50396 1+1             498 Beyoncé             6
 7 'Cause baby, we ain't got …   50396 1+1             498 Beyoncé             7
 8 Darling, you got enough fo…   50396 1+1             498 Beyoncé             8
 9 So come on, baby, make lov…   50396 1+1             498 Beyoncé             9
10 When my days look low         50396 1+1             498 Beyoncé            10
# ℹ 22,606 more rows

glimpse(beyonce_lyrics)

Rows: 22,616
Columns: 6
$ line        <chr> "If I ain't got nothing, I got you", "If I ain't got somet…
$ song_id     <dbl> 50396, 50396, 50396, 50396, 50396, 50396, 50396, 50396, 50…
$ song_name   <chr> "1+1", "1+1", "1+1", "1+1", "1+1", "1+1", "1+1", "1+1", "1…
$ artist_id   <dbl> 498, 498, 498, 498, 498, 498, 498, 498, 498, 498, 498, 498…
$ artist_name <chr> "Beyoncé", "Beyoncé", "Beyoncé", "Beyoncé", "Beyoncé", "Be…
$ song_line   <dbl> 1, 2, 3, 4, 5, 6, 7, 8, 9, 10, 11, 12, 13, 14, 15, 16, 17,…

taylor_swift_lyrics

# A tibble: 132 × 4
   artist       album        title                      lyrics                  
   <chr>        <chr>        <chr>                      <chr>                   
 1 Taylor Swift Taylor Swift Tim McGraw                 "He said the way my blu…
 2 Taylor Swift Taylor Swift Picture to Burn            "State the obvious, I d…
 3 Taylor Swift Taylor Swift Teardrops on my Guitar     "Drew looks at me,\nI f…
 4 Taylor Swift Taylor Swift A Place in This World      "I don't know what I wa…
 5 Taylor Swift Taylor Swift Cold As You                "You have a way of comi…
 6 Taylor Swift Taylor Swift The Outside                "I didn't know what I w…
 7 Taylor Swift Taylor Swift Tied Together With A Smile "Seems the only one who…
 8 Taylor Swift Taylor Swift Stay Beautiful             "Cory's eyes are like a…
 9 Taylor Swift Taylor Swift Should’ve Said No          "It's strange to think …
10 Taylor Swift Taylor Swift Mary’s Song                "She said\n\"I was seve…
# ℹ 122 more rows
…
`summarise()` has grouped output by 'artist_name'. You can override using the
`.groups` argument.

beyonce_lyrics

# A tibble: 391 × 3
   artist  title                                                lyrics          
   <chr>   <chr>                                                <chr>           
 1 Beyoncé "\"Self-Titled\" Part 1 . The Visual Album"          "I see music. I…
 2 Beyoncé "\"Self-Titled\" Part 2 . Imperfection"              "There's a mome…
 3 Beyoncé "***Flawless (Ft. Chimamanda Ngozi Adichie)"         "Your challenge…
 4 Beyoncé "***Flawless (Remix) (Ft. Nicki Minaj)"              "Dum-da-de-da D…
 5 Beyoncé "1+1"                                                "If I ain't got…
 6 Beyoncé "2017 Grammy's Best Urban Contemporary Album Speech" "Thank you so m…
 7 Beyoncé "6 Inch (Ft. The Weeknd)"                            "Six inch heels…
 8 Beyoncé "7/11"                                               "Shoulders side…
 9 Beyoncé "7/11 (Homecoming Live)"                             "Goddamn, godda…
10 Beyoncé "A Woman Like Me"                                    "Do you think Y…
# ℹ 381 more rows

Okay - this appears to be much better, and will allow us to merge them together with the Taylor Swift data. Our outcome y that we are trying to predict will be the ‘artist’ column. The features x will be the song lyrics. In order to get them to a usable state for our model, we will have to perform some preprocessing and feature engineering.

taylor_swift_lyrics <- taylor_swift_lyrics %>% 
  select(
    artist, title, lyrics
  )

data <- bind_rows(
  taylor_swift_lyrics, beyonce_lyrics
)

data

# A tibble: 523 × 3
   artist       title                      lyrics                               
   <chr>        <chr>                      <chr>                                
 1 Taylor Swift Tim McGraw                 "He said the way my blue eyes shinx\…
 2 Taylor Swift Picture to Burn            "State the obvious, I didn't get my …
 3 Taylor Swift Teardrops on my Guitar     "Drew looks at me,\nI fake a smile s…
 4 Taylor Swift A Place in This World      "I don't know what I want, so don't …
 5 Taylor Swift Cold As You                "You have a way of coming easily to …
 6 Taylor Swift The Outside                "I didn't know what I would find\nWh…
 7 Taylor Swift Tied Together With A Smile "Seems the only one who doesn't see …
 8 Taylor Swift Stay Beautiful             "Cory's eyes are like a jungle\nHe s…
 9 Taylor Swift Should’ve Said No          "It's strange to think the songs we …
10 Taylor Swift Mary’s Song                "She said\n\"I was seven, and you we…
# ℹ 513 more rows
…
