Michael Luu, MPH - Retrieve Pubmed publications using the RefManageR package
…
out

# A tibble: 68 × 15
   bibtype title author year  month journal eprint doi   language issn  abstract
   <chr>   <chr> <chr>  <chr> <chr> <chr>   <chr>  <chr> <chr>    <chr> <chr>   
 1 Article Conc… John … 2023  Jan   Prosta… 36600… 10.1… eng      1476… "BACKGR…
 2 Article Toxi… N Lyn… 2022  Nov   NPJ br… 36402… 10.1… eng      2374… "Adjuva…
 3 Article In R… Eric … 2023  Apr   The La… 36385… 10.1… eng      1531…  <NA>   
 4 Article Pred… Eric … 2022  Aug   The La… 36054… 10.1… eng      1531… "BACKGR…
 5 Article Disp… Yi-Te… 2022  Oct   Cancer  35997… 10.1… eng      1097… "BACKGR…
 6 Article Noda… Diana… 2022  Jul   Intern… 35395… 10.1… eng      1879… "PURPOS…
 7 Article Vari… Timot… 2022  Aug   The Jo… 35377… 10.1… eng      1527… "PURPOS…
 8 Article Quan… Antho… 2022  Jul   Journa… 35311… 10.1… eng      1460… "BACKGR…
 9 Article Path… Eric … 2022  May   Gyneco… 35216… 10.1… eng      1095… "PURPOS…
10 Article Pred… Paige… 2022  Apr   Urolog… 35067… 10.1… eng      1873… "BACKGR…
# ℹ 58 more rows
# ℹ 4 more variables: eprinttype <chr>, volume <chr>, number <chr>, pages <chr>
…
