Advent of Code 2023, Day 6 – Michael Luu, MPH
…
# A tibble: 1 × 2
      time distance
     <dbl>    <dbl>
1 53837288  3.33e14

res <- tibble(
  total_time = data$time,
  button_hold = 0:data$time,
  distance = data$distance
)

res

# A tibble: 53,837,289 × 3
   total_time button_hold distance
        <dbl>       <int>    <dbl>
 1   53837288           0  3.33e14
 2   53837288           1  3.33e14
 3   53837288           2  3.33e14
 4   53837288           3  3.33e14
 5   53837288           4  3.33e14
 6   53837288           5  3.33e14
 7   53837288           6  3.33e14
 8   53837288           7  3.33e14
 9   53837288           8  3.33e14
10   53837288           9  3.33e14
# ℹ 53,837,279 more rows
…
