Michael Luu, MPH – Scikit-Learn Practice From the Perspective of an R User
…
Split the dataset into a training and testing set

Train the model on the training set

Evaluate the model on the testing set

tidymodels

Let’s start off with reading in the dataset in R

data <- read_csv(url, show_col_types = FALSE)

data

# A tibble: 344 × 9
   rowid species island    bill_length_mm bill_depth_mm flipper_length_mm
   <dbl> <chr>   <chr>              <dbl>         <dbl>             <dbl>
 1     1 Adelie  Torgersen           39.1          18.7               181
 2     2 Adelie  Torgersen           39.5          17.4               186
 3     3 Adelie  Torgersen           40.3          18                 195
 4     4 Adelie  Torgersen           NA            NA                  NA
 5     5 Adelie  Torgersen           36.7          19.3               193
 6     6 Adelie  Torgersen           39.3          20.6               190
 7     7 Adelie  Torgersen           38.9          17.8               181
 8     8 Adelie  Torgersen           39.2          19.6               195
 9     9 Adelie  Torgersen           34.1          18.1               193
10    10 Adelie  Torgersen           42            20.2               190
# ℹ 334 more rows
# ℹ 3 more variables: body_mass_g <dbl>, sex <chr>, year <dbl>
…
Now that we have the outcome coded, we can split the data into a training and testing set. We will use the initial_split function from the rsample package to split the data into a 75/25 split.

set.seed(1)
split <- initial_split(data, strata = outcome)

train <- training(split)
test <- testing(split)

train

# A tibble: 258 × 10
   rowid species island    bill_length_mm bill_depth_mm flipper_length_mm
   <dbl> <chr>   <chr>              <dbl>         <dbl>             <dbl>
 1     1 Adelie  Torgersen           39.1          18.7               181
 2     2 Adelie  Torgersen           39.5          17.4               186
 3     5 Adelie  Torgersen           36.7          19.3               193
 4     9 Adelie  Torgersen           34.1          18.1               193
 5    10 Adelie  Torgersen           42            20.2               190
 6    12 Adelie  Torgersen           37.8          17.3               180
 7    13 Adelie  Torgersen           41.1          17.6               182
 8    14 Adelie  Torgersen           38.6          21.2               191
 9    15 Adelie  Torgersen           34.6          21.1               198
10    16 Adelie  Torgersen           36.6          17.8               185
# ℹ 248 more rows
# ℹ 4 more variables: body_mass_g <dbl>, sex <chr>, year <dbl>, outcome <fct>

test

# A tibble: 86 × 10
   rowid species island    bill_length_mm bill_depth_mm flipper_length_mm
   <dbl> <chr>   <chr>              <dbl>         <dbl>             <dbl>
 1     3 Adelie  Torgersen           40.3          18                 195
 2     4 Adelie  Torgersen           NA            NA                  NA
 3     6 Adelie  Torgersen           39.3          20.6               190
 4     7 Adelie  Torgersen           38.9          17.8               181
 5     8 Adelie  Torgersen           39.2          19.6               195
 6    11 Adelie  Torgersen           37.8          17.1               186
 7    18 Adelie  Torgersen           42.5          20.7               197
 8    21 Adelie  Biscoe              37.8          18.3               174
 9    35 Adelie  Dream               36.4          17                 195
10    38 Adelie  Dream               42.2          18.5               180
# ℹ 76 more rows
# ℹ 4 more variables: body_mass_g <dbl>, sex <chr>, year <dbl>, outcome <fct>
…
