Michael Luu, MPH - R Environments
…
Now that we have some of the basic fundamentals down, let’s get a little more complex.

A very typical workflow in R while creating new columns in a dataframe is to use the mutate function from dplyr. We would normally pipe the dataframe into mutate and define the new column. The output of mutate is a dataframe itself, in which we reassign the original dataframe with the new dataframe with the new column.

data <- tibble(i = 1:26)

data <- data |> 
  mutate(
    column_a = rnorm(26)
  )

data

# A tibble: 26 × 2
       i column_a
   <int>    <dbl>
 1     1   0.455 
 2     2   0.226 
 3     3   0.0299
 4     4   0.0565
 5     5   1.27  
 6     6   0.962 
 7     7   1.77  
 8     8   0.313 
 9     9   1.41  
10    10   0.469 
# ℹ 16 more rows
…
walk(column_names, \(x) {
  
  env <- global_env()
  
  env$data <- env$data |> 
    mutate(
      !!x := rnorm(26)
    )
  
})

data

# A tibble: 26 × 27
       i column_a column_b column_c column_d column_e column_f column_g column_h
   <int>    <dbl>    <dbl>    <dbl>    <dbl>    <dbl>    <dbl>    <dbl>    <dbl>
 1     1   2.54    -1.50     0.945    1.69    -0.0870  -1.07      0.533  -1.73  
 2     2  -0.566   -2.38    -0.951   -0.117    0.494   -0.172     0.106  -0.483 
 3     3  -0.489   -0.0235  -0.396    0.0982  -0.0762   0.653     0.684  -0.157 
 4     4  -1.05     1.92     1.71    -0.285    0.897   -2.10      0.234   0.141 
 5     5  -1.27    -1.07    -0.0825   1.52    -0.850    0.881    -0.632  -0.0621
 6     6  -0.803    0.422   -1.36    -2.60     0.132   -1.68      0.957  -0.567 
 7     7  -0.128   -0.680    0.297   -0.928   -0.722    0.856    -1.43    0.915 
 8     8  -0.0326   1.64     0.933    0.329    0.452    0.553    -0.380   0.608 
 9     9   0.117    1.27     0.240    1.50     0.658   -0.0955   -0.397  -1.31  
10    10   1.02    -1.12    -1.27     1.45    -0.532    0.321    -0.991  -1.53  
# ℹ 16 more rows
# ℹ 18 more variables: column_i <dbl>, column_j <dbl>, column_k <dbl>,
#   column_l <dbl>, column_m <dbl>, column_n <dbl>, column_o <dbl>,
#   column_p <dbl>, column_q <dbl>, column_r <dbl>, column_s <dbl>,
#   column_t <dbl>, column_u <dbl>, column_v <dbl>, column_w <dbl>,
#   column_x <dbl>, column_y <dbl>, column_z <dbl>
…
