Michael Luu, MPH - Advent of Code 2023, Day 12
…
The idea of this puzzle is that we are given a set of conditions of ‘hot springs’, where . are considered ‘working’ and # are considered ‘broken’. We area also given ? which means it can either be working or broken. We are also given a set of arragnements, or ‘sets’ of broken hot springs. For row #1, the arragements of 4,4 indicates there are 2 sets of 4 consecutive broken hot springs, separated by at elast 1 working hot spring. The goal is to determine the number of possible arrangements of hot springs that satisfy the given conditions.

As always, lets start off with reading in the puzzle input.

data <- read_lines(
  here('posts', 'aoc-2023-d12', 'puzzle-input.txt')
)

data <- data |> 
  as_tibble() |> 
  separate(value, into = c('conditions', 'arrangements'), sep = ' ')

data

# A tibble: 1,000 × 2
   conditions          arrangements
   <chr>               <chr>       
 1 ???#??????          4,4         
 2 ??..#??#??.????     5,1         
 3 ?.?.???????##?????  1,2,8       
 4 .#????.????#??????  2,1,1,2,1,1 
 5 ??????#????...#?... 9,1         
 6 .???.?????.         3,1,1       
 7 ??..?..???.         1,1         
 8 ??.??.#..?..??###?? 2,1,1,1,6   
 9 ????.???##          3,1,3       
10 ???#?###?#?#.???    1,1,7,1,1   
# ℹ 990 more rows
…
